<?xml version="1.0" encoding="UTF-8" standalone="no"?>
<svg width="117px" height="25px" viewBox="0 0 117 25" version="1.1" xmlns="http://www.w3.org/2000/svg" xmlns:xlink="http://www.w3.org/1999/xlink">
    <!-- Generator: Sketch 3.8.3 (29802) - http://www.bohemiancoding.com/sketch -->
    <title>Group 8</title>
    <desc>Created with Sketch.</desc>
    <defs>
        <rect id="path-1" x="31.3111663" y="1.00484076" width="15.8289971" height="23.7858197" rx="7.91449854"></rect>
        <mask id="mask-2" maskContentUnits="userSpaceOnUse" maskUnits="objectBoundingBox" x="0" y="0" width="15.8289971" height="23.7858197" fill="white">
            <use xlink:href="#path-1"></use>
        </mask>
        <rect id="path-3" x="49.7783296" y="1.00484076" width="15.8289971" height="23.7858197" rx="7.91449854"></rect>
        <mask id="mask-4" maskContentUnits="userSpaceOnUse" maskUnits="objectBoundingBox" x="0" y="0" width="15.8289971" height="23.7858197" fill="white">
            <use xlink:href="#path-3"></use>
        </mask>
    </defs>
    <g id="Symbols" stroke="none" stroke-width="1" fill="none" fill-rule="evenodd">
        <g id="Group-8" transform="translate(0.000000, -1.000000)" stroke="#C5C5C5">
            <path d="M7.93155565,1.66555798 L7.93155565,24.4603019" id="Path-178-Copy-2" stroke-width="1.31506849"></path>
            <path d="M16.1417107,24.4603019 L15.9768254,1.50037868" id="Path-179-Copy-4" stroke-width="1.31506849"></path>
            <path d="M103.201195,24.4603019 L103.036309,1.50037868" id="Path-179-Copy-5" stroke-width="1.31506849"></path>
            <use id="Rectangle-130-Copy-4" mask="url(#mask-2)" stroke-width="2.63013699" xlink:href="#path-1"></use>
            <use id="Rectangle-130-Copy-5" mask="url(#mask-4)" stroke-width="2.63013699" xlink:href="#path-3"></use>
            <path d="M68.5752636,1.33519937 L68.5752636,16.7559152 C68.5752636,20.8503727 71.9055785,24.1695863 75.995106,24.1695863 L75.995106,24.1695863 C80.0929718,24.1695863 83.4149484,20.8492704 83.4149484,16.7559152 L83.4149484,1.33519937" id="Path-180-Copy-2" stroke-width="1.31506849"></path>
            <polyline id="Path-181-Copy-2" stroke-width="1.31506849" points="88.0317392 1.66555798 88.0317392 23.8397377 99.5737162 23.8397377"></polyline>
            <path d="M88.0317392,13.2281092 L96.4408939,13.2281092" id="Path-182-Copy-2" stroke-width="1.31506849"></path>
            <path d="M0,1.99591659 L23.2123375,1.99591659 C26.2281782,1.99591659 28.6730001,4.44250094 28.6730001,7.44683361 L28.6730001,7.44683361 C28.6730001,10.457292 26.2247474,12.8977505 23.2285894,12.8977503 C23.2285894,12.8977503 22.7869323,12.8977503 22.1401274,12.8977503" id="Path-183-Copy-4" stroke-width="1.31506849"></path>
            <path d="M87.5541401,1.99591659 L110.282719,1.99591659 C113.292541,1.99591659 115.732484,4.44250094 115.732484,7.44683361 L115.732484,7.44683361 C115.732484,10.457292 113.296597,12.8977506 110.27688,12.8977506 L109.103844,12.8977506" id="Path-183-Copy-5" stroke-width="1.31506849"></path>
            <path d="M15.5987261,1.50726117 L28.6021048,24.377325" id="Path-184-Copy-4" stroke-width="1.31506849"></path>
            <path d="M103.152866,2.51210193 L115.661589,24.377325" id="Path-184-Copy-5" stroke-width="1.31506849"></path>
            <path d="M59.6714527,19.8352814 L64.9477851,25.1210191" id="Path-185-Copy-2" stroke-width="1.31506849"></path>
        </g>
    </g>
</svg>