<?xml version="1.0" encoding="UTF-8" standalone="no"?>
<svg width="116px" height="25px" viewBox="0 0 116 25" version="1.1" xmlns="http://www.w3.org/2000/svg" xmlns:xlink="http://www.w3.org/1999/xlink">
    <!-- Generator: Sketch 3.8.3 (29802) - http://www.bohemiancoding.com/sketch -->
    <title>Group 8</title>
    <desc>Created with Sketch.</desc>
    <defs>
        <rect id="path-1" x="31.1129944" y="1" width="15.7288136" height="23.6712329" rx="7.86440678"></rect>
        <mask id="mask-2" maskContentUnits="userSpaceOnUse" maskUnits="objectBoundingBox" x="0" y="0" width="15.7288136" height="23.6712329" fill="white">
            <use xlink:href="#path-1"></use>
        </mask>
        <rect id="path-3" x="49.4632768" y="1" width="15.7288136" height="23.6712329" rx="7.86440678"></rect>
        <mask id="mask-4" maskContentUnits="userSpaceOnUse" maskUnits="objectBoundingBox" x="0" y="0" width="15.7288136" height="23.6712329" fill="white">
            <use xlink:href="#path-3"></use>
        </mask>
    </defs>
    <g id="Symbols" stroke="none" stroke-width="1" fill="none" fill-rule="evenodd">
        <g id="Nav-NoLog" transform="translate(-46.000000, -18.000000)" stroke="#4A4A4A">
            <g id="Group-8">
                <g transform="translate(46.000000, 17.000000)">
                    <path d="M7.88135593,1.65753425 L7.88135593,24.3424658" id="Path-178-Copy-2" stroke-width="1.31506849"></path>
                    <path d="M16.039548,24.3424658 L15.8757062,1.49315068" id="Path-179-Copy-4" stroke-width="1.31506849"></path>
                    <path d="M102.548023,24.3424658 L102.384181,1.49315068" id="Path-179-Copy-5" stroke-width="1.31506849"></path>
                    <use id="Rectangle-130-Copy-4" mask="url(#mask-2)" stroke-width="2.63013699" xlink:href="#path-1"></use>
                    <use id="Rectangle-130-Copy-5" mask="url(#mask-4)" stroke-width="2.63013699" xlink:href="#path-3"></use>
                    <path d="M68.1412429,1.32876712 L68.1412429,16.6751946 C68.1412429,20.7499272 71.4504799,24.0531507 75.5141243,24.0531507 L75.5141243,24.0531507 C79.5860542,24.0531507 82.8870056,20.7488302 82.8870056,16.6751946 L82.8870056,1.32876712" id="Path-180-Copy-2" stroke-width="1.31506849"></path>
                    <polyline id="Path-181-Copy-2" stroke-width="1.31506849" points="87.4745763 1.65753425 87.4745763 23.7248911 98.9435028 23.7248911"></polyline>
                    <path d="M87.4745763,13.1643836 L95.8305085,13.1643836" id="Path-182-Copy-2" stroke-width="1.31506849"></path>
                    <path d="M0,1.98630137 L23.065424,1.98630137 C26.0621771,1.98630137 28.4915254,4.42109944 28.4915254,7.4109589 L28.4915254,7.4109589 C28.4915254,10.4069145 26.058768,12.8356163 23.0674659,12.8356161 C23.0674659,12.8356161 22.6427112,12.8356161 22,12.8356161" id="Path-183-Copy-4" stroke-width="1.31506849"></path>
                    <path d="M87,1.98630137 L109.568118,1.98630137 C112.568064,1.98630137 115,4.42109944 115,7.4109589 L115,7.4109589 C115,10.4069145 112.57953,12.8356164 109.578925,12.8356164 L108.413313,12.8356164" id="Path-183-Copy-5" stroke-width="1.31506849"></path>
                    <path d="M15.5,1.50000002 L28.4210788,24.2598886" id="Path-184-Copy-4" stroke-width="1.31506849"></path>
                    <path d="M102.5,2.50000002 L114.929553,24.2598886" id="Path-184-Copy-5" stroke-width="1.31506849"></path>
                    <path d="M59.2937853,19.739726 L64.5367232,25" id="Path-185-Copy-2" stroke-width="1.31506849"></path>
                </g>
            </g>
        </g>
    </g>
</svg>